[
  {
    "name":"meow",
    "energy":"322",
    "type":"caramel",
    "ingredients":{
      "water":"22",
      "sugar":"33",
      "fructose":"13",
      "type of chocolate":"w/o",
      "vanilin":"1"
    }
  },
  {
    "name":"wow",
    "energy":"210",
    "type":"chocolate",
    "ingredients":{
      "water":"9",
      "sugar":"45",
      "fructose":"10",
      "type of chocolate":"milk chocolate",
      "vanilin":"2"
    }
  }
]